module desyco/myfirstcrd

go 1.13

require (
	github.com/googleapis/gnostic v0.3.1 // indirect
	github.com/imdario/mergo v0.3.8 // indirect
	github.com/spf13/pflag v1.0.5 // indirect
	go.mongodb.org/mongo-driver v1.1.2
	golang.org/x/crypto v0.0.0-20191029031824-8986dd9e96cf // indirect
	golang.org/x/net v0.0.0-20191028085509-fe3aa8a45271 // indirect
	golang.org/x/oauth2 v0.0.0-20190604053449-0f29369cfe45 // indirect
	golang.org/x/time v0.0.0-20191024005414-555d28b269f0 // indirect
	k8s.io/api v0.0.0-20191031065753-b19d8caf39be // indirect
	k8s.io/apimachinery v0.0.0-20191030190112-bb31b70367b7
	k8s.io/client-go v12.0.0+incompatible
	k8s.io/utils v0.0.0-20191030222137-2b95a09bc58d // indirect
)
